(kicad_sch (version 20211123) (generator eeschema)

  (uuid ae78189d-79c7-41a0-b77c-3bb766898352)

  (paper "A4")

  (title_block
    (title "SENSOR SUBMODULE SCHEMATIC   Author: Moutloatsi Setlogelo")
    (date "2022-04-12")
    (rev "v1.05")
    (company "University of Cape Town")
  )

  (lib_symbols
    (symbol "Device:C_Small" (pin_numbers hide) (pin_names (offset 0.254) hide) (in_bom yes) (on_board yes)
      (property "Reference" "C" (id 0) (at 0.254 1.778 0)
        (effects (font (size 1.27 1.27)) (justify left))
      )
      (property "Value" "C_Small" (id 1) (at 0.254 -2.032 0)
        (effects (font (size 1.27 1.27)) (justify left))
      )
      (property "Footprint" "" (id 2) (at 0 0 0)
        (effects (font (size 1.27 1.27)) hide)
      )
      (property "Datasheet" "~" (id 3) (at 0 0 0)
        (effects (font (size 1.27 1.27)) hide)
      )
      (property "ki_keywords" "capacitor cap" (id 4) (at 0 0 0)
        (effects (font (size 1.27 1.27)) hide)
      )
      (property "ki_description" "Unpolarized capacitor, small symbol" (id 5) (at 0 0 0)
        (effects (font (size 1.27 1.27)) hide)
      )
      (property "ki_fp_filters" "C_*" (id 6) (at 0 0 0)
        (effects (font (size 1.27 1.27)) hide)
      )
      (symbol "C_Small_0_1"
        (polyline
          (pts
            (xy -1.524 -0.508)
            (xy 1.524 -0.508)
          )
          (stroke (width 0.3302) (type default) (color 0 0 0 0))
          (fill (type none))
        )
        (polyline
          (pts
            (xy -1.524 0.508)
            (xy 1.524 0.508)
          )
          (stroke (width 0.3048) (type default) (color 0 0 0 0))
          (fill (type none))
        )
      )
      (symbol "C_Small_1_1"
        (pin passive line (at 0 2.54 270) (length 2.032)
          (name "~" (effects (font (size 1.27 1.27))))
          (number "1" (effects (font (size 1.27 1.27))))
        )
        (pin passive line (at 0 -2.54 90) (length 2.032)
          (name "~" (effects (font (size 1.27 1.27))))
          (number "2" (effects (font (size 1.27 1.27))))
        )
      )
    )
    (symbol "Device:Q_NPN_BCE" (pin_names (offset 0) hide) (in_bom yes) (on_board yes)
      (property "Reference" "Q" (id 0) (at 5.08 1.27 0)
        (effects (font (size 1.27 1.27)) (justify left))
      )
      (property "Value" "Q_NPN_BCE" (id 1) (at 5.08 -1.27 0)
        (effects (font (size 1.27 1.27)) (justify left))
      )
      (property "Footprint" "" (id 2) (at 5.08 2.54 0)
        (effects (font (size 1.27 1.27)) hide)
      )
      (property "Datasheet" "~" (id 3) (at 0 0 0)
        (effects (font (size 1.27 1.27)) hide)
      )
      (property "ki_keywords" "transistor NPN" (id 4) (at 0 0 0)
        (effects (font (size 1.27 1.27)) hide)
      )
      (property "ki_description" "NPN transistor, base/collector/emitter" (id 5) (at 0 0 0)
        (effects (font (size 1.27 1.27)) hide)
      )
      (symbol "Q_NPN_BCE_0_1"
        (polyline
          (pts
            (xy 0.635 0.635)
            (xy 2.54 2.54)
          )
          (stroke (width 0) (type default) (color 0 0 0 0))
          (fill (type none))
        )
        (polyline
          (pts
            (xy 0.635 -0.635)
            (xy 2.54 -2.54)
            (xy 2.54 -2.54)
          )
          (stroke (width 0) (type default) (color 0 0 0 0))
          (fill (type none))
        )
        (polyline
          (pts
            (xy 0.635 1.905)
            (xy 0.635 -1.905)
            (xy 0.635 -1.905)
          )
          (stroke (width 0.508) (type default) (color 0 0 0 0))
          (fill (type none))
        )
        (polyline
          (pts
            (xy 1.27 -1.778)
            (xy 1.778 -1.27)
            (xy 2.286 -2.286)
            (xy 1.27 -1.778)
            (xy 1.27 -1.778)
          )
          (stroke (width 0) (type default) (color 0 0 0 0))
          (fill (type outline))
        )
        (circle (center 1.27 0) (radius 2.8194)
          (stroke (width 0.254) (type default) (color 0 0 0 0))
          (fill (type none))
        )
      )
      (symbol "Q_NPN_BCE_1_1"
        (pin input line (at -5.08 0 0) (length 5.715)
          (name "B" (effects (font (size 1.27 1.27))))
          (number "1" (effects (font (size 1.27 1.27))))
        )
        (pin passive line (at 2.54 5.08 270) (length 2.54)
          (name "C" (effects (font (size 1.27 1.27))))
          (number "2" (effects (font (size 1.27 1.27))))
        )
        (pin passive line (at 2.54 -5.08 90) (length 2.54)
          (name "E" (effects (font (size 1.27 1.27))))
          (number "3" (effects (font (size 1.27 1.27))))
        )
      )
    )
    (symbol "Device:R_Small" (pin_numbers hide) (pin_names (offset 0.254) hide) (in_bom yes) (on_board yes)
      (property "Reference" "R" (id 0) (at 0.762 0.508 0)
        (effects (font (size 1.27 1.27)) (justify left))
      )
      (property "Value" "R_Small" (id 1) (at 0.762 -1.016 0)
        (effects (font (size 1.27 1.27)) (justify left))
      )
      (property "Footprint" "" (id 2) (at 0 0 0)
        (effects (font (size 1.27 1.27)) hide)
      )
      (property "Datasheet" "~" (id 3) (at 0 0 0)
        (effects (font (size 1.27 1.27)) hide)
      )
      (property "ki_keywords" "R resistor" (id 4) (at 0 0 0)
        (effects (font (size 1.27 1.27)) hide)
      )
      (property "ki_description" "Resistor, small symbol" (id 5) (at 0 0 0)
        (effects (font (size 1.27 1.27)) hide)
      )
      (property "ki_fp_filters" "R_*" (id 6) (at 0 0 0)
        (effects (font (size 1.27 1.27)) hide)
      )
      (symbol "R_Small_0_1"
        (rectangle (start -0.762 1.778) (end 0.762 -1.778)
          (stroke (width 0.2032) (type default) (color 0 0 0 0))
          (fill (type none))
        )
      )
      (symbol "R_Small_1_1"
        (pin passive line (at 0 2.54 270) (length 0.762)
          (name "~" (effects (font (size 1.27 1.27))))
          (number "1" (effects (font (size 1.27 1.27))))
        )
        (pin passive line (at 0 -2.54 90) (length 0.762)
          (name "~" (effects (font (size 1.27 1.27))))
          (number "2" (effects (font (size 1.27 1.27))))
        )
      )
    )
    (symbol "LTR-553ALS-01:LTR-553ALS-01" (pin_names (offset 0.762)) (in_bom yes) (on_board yes)
      (property "Reference" "IC" (id 0) (at 26.67 7.62 0)
        (effects (font (size 1.27 1.27)) (justify left))
      )
      (property "Value" "LTR-553ALS-01" (id 1) (at 26.67 5.08 0)
        (effects (font (size 1.27 1.27)) (justify left))
      )
      (property "Footprint" "LTR553ALS01" (id 2) (at 26.67 2.54 0)
        (effects (font (size 1.27 1.27)) (justify left) hide)
      )
      (property "Datasheet" "http://optoelectronics.liteon.com/upload/download/DS86-2014-0007/LTR-553ALS-01_DS_V1.pdf" (id 3) (at 26.67 0 0)
        (effects (font (size 1.27 1.27)) (justify left) hide)
      )
      (property "Description" "Light to Digital Converters Ambient Light Photo Sensor" (id 4) (at 26.67 -2.54 0)
        (effects (font (size 1.27 1.27)) (justify left) hide)
      )
      (property "Height" "1" (id 5) (at 26.67 -5.08 0)
        (effects (font (size 1.27 1.27)) (justify left) hide)
      )
      (property "Manufacturer_Name" "Lite-On" (id 6) (at 26.67 -7.62 0)
        (effects (font (size 1.27 1.27)) (justify left) hide)
      )
      (property "Manufacturer_Part_Number" "LTR-553ALS-01" (id 7) (at 26.67 -10.16 0)
        (effects (font (size 1.27 1.27)) (justify left) hide)
      )
      (property "Mouser Part Number" "859-LTR553ALS01" (id 8) (at 26.67 -12.7 0)
        (effects (font (size 1.27 1.27)) (justify left) hide)
      )
      (property "Mouser Price/Stock" "https://www.mouser.co.uk/ProductDetail/Lite-On/LTR-553ALS-01?qs=g5ciJ0jwZaGAdG9iU0hAjA%3D%3D" (id 9) (at 26.67 -15.24 0)
        (effects (font (size 1.27 1.27)) (justify left) hide)
      )
      (property "Arrow Part Number" "LTR-553ALS-01" (id 10) (at 26.67 -17.78 0)
        (effects (font (size 1.27 1.27)) (justify left) hide)
      )
      (property "Arrow Price/Stock" "https://www.arrow.com/en/products/ltr-553als-01/lite-on-technology?region=nac" (id 11) (at 26.67 -20.32 0)
        (effects (font (size 1.27 1.27)) (justify left) hide)
      )
      (property "ki_description" "Light to Digital Converters Ambient Light Photo Sensor" (id 12) (at 0 0 0)
        (effects (font (size 1.27 1.27)) hide)
      )
      (symbol "LTR-553ALS-01_0_0"
        (pin passive line (at 0 -7.62 0) (length 5.08)
          (name "SDA" (effects (font (size 1.27 1.27))))
          (number "1" (effects (font (size 1.27 1.27))))
        )
        (pin passive line (at 0 -5.08 0) (length 5.08)
          (name "INT" (effects (font (size 1.27 1.27))))
          (number "2" (effects (font (size 1.27 1.27))))
        )
        (pin passive line (at 0 -2.54 0) (length 5.08)
          (name "LDR" (effects (font (size 1.27 1.27))))
          (number "3" (effects (font (size 1.27 1.27))))
        )
        (pin passive line (at 0 0 0) (length 5.08)
          (name "LED_K" (effects (font (size 1.27 1.27))))
          (number "4" (effects (font (size 1.27 1.27))))
        )
        (pin passive line (at 30.48 0 180) (length 5.08)
          (name "LED_A" (effects (font (size 1.27 1.27))))
          (number "5" (effects (font (size 1.27 1.27))))
        )
        (pin passive line (at 30.48 -2.54 180) (length 5.08)
          (name "GND" (effects (font (size 1.27 1.27))))
          (number "6" (effects (font (size 1.27 1.27))))
        )
        (pin passive line (at 30.48 -5.08 180) (length 5.08)
          (name "SCL" (effects (font (size 1.27 1.27))))
          (number "7" (effects (font (size 1.27 1.27))))
        )
        (pin passive line (at 30.48 -7.62 180) (length 5.08)
          (name "VDD" (effects (font (size 1.27 1.27))))
          (number "8" (effects (font (size 1.27 1.27))))
        )
      )
      (symbol "LTR-553ALS-01_0_1"
        (polyline
          (pts
            (xy 5.08 2.54)
            (xy 25.4 2.54)
            (xy 25.4 -10.16)
            (xy 5.08 -10.16)
            (xy 5.08 2.54)
          )
          (stroke (width 0.1524) (type default) (color 0 0 0 0))
          (fill (type none))
        )
      )
    )
    (symbol "PKM13EPYH4002-B0:PKM13EPYH4002-B0" (pin_numbers hide) (pin_names (offset 1.016) hide) (in_bom yes) (on_board yes)
      (property "Reference" "LS" (id 0) (at -3.81 8.9154 0)
        (effects (font (size 1.27 1.27)) (justify left bottom))
      )
      (property "Value" "PKM13EPYH4002-B0" (id 1) (at -3.8354 -11.4808 0)
        (effects (font (size 1.27 1.27)) (justify left bottom))
      )
      (property "Footprint" "SPKR_PKM13EPYH4002-B0" (id 2) (at 0 0 0)
        (effects (font (size 1.27 1.27)) (justify left bottom) hide)
      )
      (property "Datasheet" "" (id 3) (at 0 0 0)
        (effects (font (size 1.27 1.27)) (justify left bottom) hide)
      )
      (property "MANUFACTURER" "Murata Electronics" (id 4) (at 0 0 0)
        (effects (font (size 1.27 1.27)) (justify left bottom) hide)
      )
      (property "PARTREV" "December 26, 2017" (id 5) (at 0 0 0)
        (effects (font (size 1.27 1.27)) (justify left bottom) hide)
      )
      (property "STANDARD" "IPC-7351B" (id 6) (at 0 0 0)
        (effects (font (size 1.27 1.27)) (justify left bottom) hide)
      )
      (property "MAXIMUM_PACKAGE_HEIGHT" "6.9 mm" (id 7) (at 0 0 0)
        (effects (font (size 1.27 1.27)) (justify left bottom) hide)
      )
      (property "ki_locked" "" (id 8) (at 0 0 0)
        (effects (font (size 1.27 1.27)))
      )
      (symbol "PKM13EPYH4002-B0_0_0"
        (polyline
          (pts
            (xy -0.635 -1.27)
            (xy -0.635 1.27)
          )
          (stroke (width 0.254) (type default) (color 0 0 0 0))
          (fill (type none))
        )
        (polyline
          (pts
            (xy -0.635 1.27)
            (xy 0 1.27)
          )
          (stroke (width 0.254) (type default) (color 0 0 0 0))
          (fill (type none))
        )
        (polyline
          (pts
            (xy 0 -1.27)
            (xy -0.635 -1.27)
          )
          (stroke (width 0.254) (type default) (color 0 0 0 0))
          (fill (type none))
        )
        (polyline
          (pts
            (xy 0 -1.27)
            (xy 0 -2.54)
          )
          (stroke (width 0.254) (type default) (color 0 0 0 0))
          (fill (type none))
        )
        (polyline
          (pts
            (xy 0 1.27)
            (xy 0 2.54)
          )
          (stroke (width 0.254) (type default) (color 0 0 0 0))
          (fill (type none))
        )
        (polyline
          (pts
            (xy 0 1.27)
            (xy 0.635 1.27)
          )
          (stroke (width 0.254) (type default) (color 0 0 0 0))
          (fill (type none))
        )
        (polyline
          (pts
            (xy 0.635 -1.27)
            (xy 0 -1.27)
          )
          (stroke (width 0.254) (type default) (color 0 0 0 0))
          (fill (type none))
        )
        (polyline
          (pts
            (xy 0.635 1.27)
            (xy 0.635 -1.27)
          )
          (stroke (width 0.254) (type default) (color 0 0 0 0))
          (fill (type none))
        )
        (polyline
          (pts
            (xy 0.635 1.27)
            (xy 1.905 3.175)
          )
          (stroke (width 0.254) (type default) (color 0 0 0 0))
          (fill (type none))
        )
        (polyline
          (pts
            (xy 1.905 -3.175)
            (xy 0.635 -1.27)
          )
          (stroke (width 0.254) (type default) (color 0 0 0 0))
          (fill (type none))
        )
        (polyline
          (pts
            (xy 1.905 3.175)
            (xy 1.905 -3.175)
          )
          (stroke (width 0.254) (type default) (color 0 0 0 0))
          (fill (type none))
        )
        (text "+" (at -1.905 1.27 0)
          (effects (font (size 1.778 1.778)) (justify left bottom))
        )
        (text "-" (at -1.905 -1.27 0)
          (effects (font (size 1.778 1.778)) (justify left top))
        )
        (pin passive line (at 0 -5.08 90) (length 2.54)
          (name "~" (effects (font (size 1.016 1.016))))
          (number "N" (effects (font (size 1.016 1.016))))
        )
        (pin passive line (at 0 5.08 270) (length 2.54)
          (name "~" (effects (font (size 1.016 1.016))))
          (number "P" (effects (font (size 1.016 1.016))))
        )
      )
    )
    (symbol "Transistor_FET:2N7002" (pin_names hide) (in_bom yes) (on_board yes)
      (property "Reference" "Q" (id 0) (at 5.08 1.905 0)
        (effects (font (size 1.27 1.27)) (justify left))
      )
      (property "Value" "2N7002" (id 1) (at 5.08 0 0)
        (effects (font (size 1.27 1.27)) (justify left))
      )
      (property "Footprint" "Package_TO_SOT_SMD:SOT-23" (id 2) (at 5.08 -1.905 0)
        (effects (font (size 1.27 1.27) italic) (justify left) hide)
      )
      (property "Datasheet" "https://www.onsemi.com/pub/Collateral/NDS7002A-D.PDF" (id 3) (at 0 0 0)
        (effects (font (size 1.27 1.27)) (justify left) hide)
      )
      (property "ki_keywords" "N-Channel Switching MOSFET" (id 4) (at 0 0 0)
        (effects (font (size 1.27 1.27)) hide)
      )
      (property "ki_description" "0.115A Id, 60V Vds, N-Channel MOSFET, SOT-23" (id 5) (at 0 0 0)
        (effects (font (size 1.27 1.27)) hide)
      )
      (property "ki_fp_filters" "SOT?23*" (id 6) (at 0 0 0)
        (effects (font (size 1.27 1.27)) hide)
      )
      (symbol "2N7002_0_1"
        (polyline
          (pts
            (xy 0.254 0)
            (xy -2.54 0)
          )
          (stroke (width 0) (type default) (color 0 0 0 0))
          (fill (type none))
        )
        (polyline
          (pts
            (xy 0.254 1.905)
            (xy 0.254 -1.905)
          )
          (stroke (width 0.254) (type default) (color 0 0 0 0))
          (fill (type none))
        )
        (polyline
          (pts
            (xy 0.762 -1.27)
            (xy 0.762 -2.286)
          )
          (stroke (width 0.254) (type default) (color 0 0 0 0))
          (fill (type none))
        )
        (polyline
          (pts
            (xy 0.762 0.508)
            (xy 0.762 -0.508)
          )
          (stroke (width 0.254) (type default) (color 0 0 0 0))
          (fill (type none))
        )
        (polyline
          (pts
            (xy 0.762 2.286)
            (xy 0.762 1.27)
          )
          (stroke (width 0.254) (type default) (color 0 0 0 0))
          (fill (type none))
        )
        (polyline
          (pts
            (xy 2.54 2.54)
            (xy 2.54 1.778)
          )
          (stroke (width 0) (type default) (color 0 0 0 0))
          (fill (type none))
        )
        (polyline
          (pts
            (xy 2.54 -2.54)
            (xy 2.54 0)
            (xy 0.762 0)
          )
          (stroke (width 0) (type default) (color 0 0 0 0))
          (fill (type none))
        )
        (polyline
          (pts
            (xy 0.762 -1.778)
            (xy 3.302 -1.778)
            (xy 3.302 1.778)
            (xy 0.762 1.778)
          )
          (stroke (width 0) (type default) (color 0 0 0 0))
          (fill (type none))
        )
        (polyline
          (pts
            (xy 1.016 0)
            (xy 2.032 0.381)
            (xy 2.032 -0.381)
            (xy 1.016 0)
          )
          (stroke (width 0) (type default) (color 0 0 0 0))
          (fill (type outline))
        )
        (polyline
          (pts
            (xy 2.794 0.508)
            (xy 2.921 0.381)
            (xy 3.683 0.381)
            (xy 3.81 0.254)
          )
          (stroke (width 0) (type default) (color 0 0 0 0))
          (fill (type none))
        )
        (polyline
          (pts
            (xy 3.302 0.381)
            (xy 2.921 -0.254)
            (xy 3.683 -0.254)
            (xy 3.302 0.381)
          )
          (stroke (width 0) (type default) (color 0 0 0 0))
          (fill (type none))
        )
        (circle (center 1.651 0) (radius 2.794)
          (stroke (width 0.254) (type default) (color 0 0 0 0))
          (fill (type none))
        )
        (circle (center 2.54 -1.778) (radius 0.254)
          (stroke (width 0) (type default) (color 0 0 0 0))
          (fill (type outline))
        )
        (circle (center 2.54 1.778) (radius 0.254)
          (stroke (width 0) (type default) (color 0 0 0 0))
          (fill (type outline))
        )
      )
      (symbol "2N7002_1_1"
        (pin input line (at -5.08 0 0) (length 2.54)
          (name "G" (effects (font (size 1.27 1.27))))
          (number "1" (effects (font (size 1.27 1.27))))
        )
        (pin passive line (at 2.54 -5.08 90) (length 2.54)
          (name "S" (effects (font (size 1.27 1.27))))
          (number "2" (effects (font (size 1.27 1.27))))
        )
        (pin passive line (at 2.54 5.08 270) (length 2.54)
          (name "D" (effects (font (size 1.27 1.27))))
          (number "3" (effects (font (size 1.27 1.27))))
        )
      )
    )
    (symbol "power:+3V3" (power) (pin_names (offset 0)) (in_bom yes) (on_board yes)
      (property "Reference" "#PWR" (id 0) (at 0 -3.81 0)
        (effects (font (size 1.27 1.27)) hide)
      )
      (property "Value" "+3V3" (id 1) (at 0 3.556 0)
        (effects (font (size 1.27 1.27)))
      )
      (property "Footprint" "" (id 2) (at 0 0 0)
        (effects (font (size 1.27 1.27)) hide)
      )
      (property "Datasheet" "" (id 3) (at 0 0 0)
        (effects (font (size 1.27 1.27)) hide)
      )
      (property "ki_keywords" "power-flag" (id 4) (at 0 0 0)
        (effects (font (size 1.27 1.27)) hide)
      )
      (property "ki_description" "Power symbol creates a global label with name \"+3V3\"" (id 5) (at 0 0 0)
        (effects (font (size 1.27 1.27)) hide)
      )
      (symbol "+3V3_0_1"
        (polyline
          (pts
            (xy -0.762 1.27)
            (xy 0 2.54)
          )
          (stroke (width 0) (type default) (color 0 0 0 0))
          (fill (type none))
        )
        (polyline
          (pts
            (xy 0 0)
            (xy 0 2.54)
          )
          (stroke (width 0) (type default) (color 0 0 0 0))
          (fill (type none))
        )
        (polyline
          (pts
            (xy 0 2.54)
            (xy 0.762 1.27)
          )
          (stroke (width 0) (type default) (color 0 0 0 0))
          (fill (type none))
        )
      )
      (symbol "+3V3_1_1"
        (pin power_in line (at 0 0 90) (length 0) hide
          (name "+3V3" (effects (font (size 1.27 1.27))))
          (number "1" (effects (font (size 1.27 1.27))))
        )
      )
    )
    (symbol "power:GND" (power) (pin_names (offset 0)) (in_bom yes) (on_board yes)
      (property "Reference" "#PWR" (id 0) (at 0 -6.35 0)
        (effects (font (size 1.27 1.27)) hide)
      )
      (property "Value" "GND" (id 1) (at 0 -3.81 0)
        (effects (font (size 1.27 1.27)))
      )
      (property "Footprint" "" (id 2) (at 0 0 0)
        (effects (font (size 1.27 1.27)) hide)
      )
      (property "Datasheet" "" (id 3) (at 0 0 0)
        (effects (font (size 1.27 1.27)) hide)
      )
      (property "ki_keywords" "power-flag" (id 4) (at 0 0 0)
        (effects (font (size 1.27 1.27)) hide)
      )
      (property "ki_description" "Power symbol creates a global label with name \"GND\" , ground" (id 5) (at 0 0 0)
        (effects (font (size 1.27 1.27)) hide)
      )
      (symbol "GND_0_1"
        (polyline
          (pts
            (xy 0 0)
            (xy 0 -1.27)
            (xy 1.27 -1.27)
            (xy 0 -2.54)
            (xy -1.27 -1.27)
            (xy 0 -1.27)
          )
          (stroke (width 0) (type default) (color 0 0 0 0))
          (fill (type none))
        )
      )
      (symbol "GND_1_1"
        (pin power_in line (at 0 0 270) (length 0) hide
          (name "GND" (effects (font (size 1.27 1.27))))
          (number "1" (effects (font (size 1.27 1.27))))
        )
      )
    )
  )

  (junction (at 233.934 103.886) (diameter 0) (color 0 0 0 0)
    (uuid 82a86d34-fcf6-41cb-b239-7c427159c0b2)
  )
  (junction (at 262.89 29.845) (diameter 0) (color 0 0 0 0)
    (uuid 86af766d-6b15-4b5b-88af-d0249ebdfc4e)
  )
  (junction (at 203.835 35.56) (diameter 0) (color 0 0 0 0)
    (uuid e523b12e-b581-4de8-bd9b-f2f4f35e0689)
  )
  (junction (at 203.835 22.86) (diameter 0) (color 0 0 0 0)
    (uuid f1a23615-105e-44ff-b3a9-c9e5844b3b75)
  )
  (junction (at 249.174 96.266) (diameter 0) (color 0 0 0 0)
    (uuid f39ac810-b92f-4fda-82df-1dc6aff62807)
  )

  (polyline (pts (xy 201.295 121.92) (xy 201.295 166.37))
    (stroke (width 0) (type default) (color 0 0 0 0))
    (uuid 03ef7221-9fdd-4d00-b6be-e31f84ede9bb)
  )
  (polyline (pts (xy 200.66 121.92) (xy 285.115 121.92))
    (stroke (width 0) (type default) (color 0 0 0 0))
    (uuid 0c8091c9-7242-4f00-b772-308298fbcc7f)
  )
  (polyline (pts (xy 236.855 67.945) (xy 285.115 67.945))
    (stroke (width 0) (type default) (color 0 0 0 0))
    (uuid 0ff5c88c-73e0-4e46-bbf2-1d9a50aea9bc)
  )

  (wire (pts (xy 233.934 98.806) (xy 246.38 98.806))
    (stroke (width 0) (type default) (color 0 0 0 0))
    (uuid 137433c8-da80-478a-b05b-6cbd570d3bc4)
  )
  (wire (pts (xy 233.934 103.886) (xy 233.934 106.172))
    (stroke (width 0) (type default) (color 0 0 0 0))
    (uuid 1be5ca84-48d9-4fc8-ab97-f0a1cdc247f9)
  )
  (wire (pts (xy 187.96 46.355) (xy 191.135 46.355))
    (stroke (width 0) (type default) (color 0 0 0 0))
    (uuid 1fcfe487-1632-44e2-b0c2-f98b23744293)
  )
  (wire (pts (xy 203.454 103.886) (xy 194.564 103.886))
    (stroke (width 0) (type default) (color 0 0 0 0))
    (uuid 26c91b62-d25c-48d6-9bbd-ed17c15eaa3a)
  )
  (wire (pts (xy 262.89 26.67) (xy 262.89 29.845))
    (stroke (width 0) (type default) (color 0 0 0 0))
    (uuid 2bdb6275-447c-48c2-a84b-aa998dd2916b)
  )
  (wire (pts (xy 203.835 35.56) (xy 217.17 35.56))
    (stroke (width 0) (type default) (color 0 0 0 0))
    (uuid 3534fbaa-89d6-4b2c-a719-d6ced0a3490d)
  )
  (wire (pts (xy 219.71 33.528) (xy 217.17 33.528))
    (stroke (width 0) (type default) (color 0 0 0 0))
    (uuid 405f9649-f448-4d9d-8023-f6838de07432)
  )
  (wire (pts (xy 249.174 95.631) (xy 249.174 96.266))
    (stroke (width 0) (type default) (color 0 0 0 0))
    (uuid 43842bc5-eb5d-4b1b-b855-863d38ab71ed)
  )
  (wire (pts (xy 203.835 31.115) (xy 203.835 35.56))
    (stroke (width 0) (type default) (color 0 0 0 0))
    (uuid 461e0f39-47f5-4bf2-8cdd-a33222a56ac0)
  )
  (wire (pts (xy 233.934 101.346) (xy 236.982 101.346))
    (stroke (width 0) (type default) (color 0 0 0 0))
    (uuid 4a46ed0b-180a-469c-9069-102bbf391033)
  )
  (wire (pts (xy 262.89 40.005) (xy 262.89 42.545))
    (stroke (width 0) (type default) (color 0 0 0 0))
    (uuid 5a1a94ac-81e8-48ce-bdee-cb2bbf2b8b38)
  )
  (wire (pts (xy 217.17 23.368) (xy 219.71 23.368))
    (stroke (width 0) (type default) (color 0 0 0 0))
    (uuid 5e51f034-4349-4cc2-bc26-73bc18ecf7a7)
  )
  (wire (pts (xy 253.365 29.845) (xy 262.89 29.845))
    (stroke (width 0) (type default) (color 0 0 0 0))
    (uuid 6131eb75-3400-4160-b54e-66401a49f1f7)
  )
  (wire (pts (xy 203.835 22.86) (xy 203.835 26.035))
    (stroke (width 0) (type default) (color 0 0 0 0))
    (uuid 6686f617-ef75-485b-bfd7-a7b0edb1a6df)
  )
  (wire (pts (xy 233.934 96.266) (xy 249.174 96.266))
    (stroke (width 0) (type default) (color 0 0 0 0))
    (uuid 688010f0-5677-47b2-8701-48b9bc495fa5)
  )
  (polyline (pts (xy 180.34 67.945) (xy 180.34 68.58))
    (stroke (width 0) (type default) (color 0 0 0 0))
    (uuid 829d375c-a6bc-4b11-a8ad-9aee4d2bbd98)
  )

  (wire (pts (xy 217.17 23.368) (xy 217.17 22.86))
    (stroke (width 0) (type default) (color 0 0 0 0))
    (uuid 88f8aab5-2025-450e-8f79-036b8ba3f3a1)
  )
  (polyline (pts (xy 180.34 12.7) (xy 180.34 121.92))
    (stroke (width 0) (type default) (color 0 0 0 0))
    (uuid a999315b-6aeb-4365-8bc7-3add5a5828f5)
  )

  (wire (pts (xy 262.89 29.845) (xy 262.89 34.925))
    (stroke (width 0) (type default) (color 0 0 0 0))
    (uuid aad7a2f8-ae00-44dc-aa53-18a3e10940de)
  )
  (polyline (pts (xy 236.855 12.7) (xy 236.855 67.945))
    (stroke (width 0) (type default) (color 0 0 0 0))
    (uuid ac537724-722f-45ea-9509-055a6194d6e4)
  )

  (wire (pts (xy 262.89 52.705) (xy 262.89 55.245))
    (stroke (width 0) (type default) (color 0 0 0 0))
    (uuid ad9db4e5-aa18-4632-9151-873db8cc7fef)
  )
  (wire (pts (xy 189.865 19.685) (xy 203.835 19.685))
    (stroke (width 0) (type default) (color 0 0 0 0))
    (uuid b2fd4e05-fcfd-404f-bedf-6477e76f5873)
  )
  (polyline (pts (xy 180.34 121.92) (xy 201.295 121.92))
    (stroke (width 0) (type default) (color 0 0 0 0))
    (uuid c07f31d1-5851-4da0-825b-981376d48944)
  )

  (wire (pts (xy 203.835 51.435) (xy 203.835 53.975))
    (stroke (width 0) (type default) (color 0 0 0 0))
    (uuid d1c42978-0f02-42db-9a13-4ce87c50be2a)
  )
  (wire (pts (xy 194.564 101.346) (xy 203.454 101.346))
    (stroke (width 0) (type default) (color 0 0 0 0))
    (uuid deae1979-5ee8-438f-8b6a-7b4a8130b308)
  )
  (wire (pts (xy 249.174 103.886) (xy 233.934 103.886))
    (stroke (width 0) (type default) (color 0 0 0 0))
    (uuid df1b28de-d73c-4328-9f7f-55bf26651bdf)
  )
  (wire (pts (xy 203.835 19.685) (xy 203.835 22.86))
    (stroke (width 0) (type default) (color 0 0 0 0))
    (uuid dfc1e425-6ff9-41b2-8366-c228f2cdd442)
  )
  (wire (pts (xy 203.835 22.86) (xy 217.17 22.86))
    (stroke (width 0) (type default) (color 0 0 0 0))
    (uuid e2f4cbc5-6ec1-4738-afa8-9ee295023424)
  )
  (wire (pts (xy 203.835 35.56) (xy 203.835 41.275))
    (stroke (width 0) (type default) (color 0 0 0 0))
    (uuid e7149f13-d0a5-4034-8525-3a1d4e20e80f)
  )
  (wire (pts (xy 262.89 16.51) (xy 262.89 21.59))
    (stroke (width 0) (type default) (color 0 0 0 0))
    (uuid ea2c0fc1-2833-4b4e-b574-ad2fc842bfc0)
  )
  (wire (pts (xy 217.17 33.528) (xy 217.17 35.56))
    (stroke (width 0) (type default) (color 0 0 0 0))
    (uuid ece3c9c3-ea43-4af0-8233-f0f8010aef18)
  )
  (wire (pts (xy 200.66 96.266) (xy 200.66 98.806))
    (stroke (width 0) (type default) (color 0 0 0 0))
    (uuid ed04f126-0b40-4dfb-8c67-e2a643a28c45)
  )
  (wire (pts (xy 203.454 96.266) (xy 200.66 96.266))
    (stroke (width 0) (type default) (color 0 0 0 0))
    (uuid f58a6864-ae3f-48c8-8cf5-db67dba855eb)
  )
  (wire (pts (xy 249.174 96.266) (xy 249.174 103.886))
    (stroke (width 0) (type default) (color 0 0 0 0))
    (uuid f77d8f61-8e6f-452d-b700-7468cf65bdec)
  )
  (polyline (pts (xy 236.855 67.945) (xy 180.34 67.945))
    (stroke (width 0) (type default) (color 0 0 0 0))
    (uuid fa33938a-7194-4189-9805-2e2648399ea3)
  )

  (wire (pts (xy 200.66 98.806) (xy 203.454 98.806))
    (stroke (width 0) (type default) (color 0 0 0 0))
    (uuid fd424e51-a2b0-4887-87b6-ff0041a11482)
  )

  (text "AMBIENT LIGHT SENSOR\n" (at 260.35 72.39 0)
    (effects (font (size 1.27 1.27)) (justify left bottom))
    (uuid 391eb9b8-dbc1-449a-bcd8-7cb86a123b0c)
  )
  (text "Sensors and supporting analog components, decoupling, pin assignments"
    (at 212.725 165.735 0)
    (effects (font (size 1.27 1.27)) (justify left bottom))
    (uuid 9d1cef05-e407-4a01-9fa1-d7e772ae8939)
  )
  (text "PIEZO BUZZER OUTPUT\n" (at 212.725 16.51 0)
    (effects (font (size 1.27 1.27)) (justify left bottom))
    (uuid ed74b311-30b7-4cec-a1ae-cf1be8e2d822)
  )
  (text "BATTERY MEASUREMENT SESNOR\n" (at 252.095 65.405 0)
    (effects (font (size 1.27 1.27)) (justify left bottom))
    (uuid ffa746dd-d043-4c75-886c-5af92d85f594)
  )

  (hierarchical_label "PC15" (shape input) (at 255.27 47.625 180)
    (effects (font (size 1.27 1.27)) (justify right))
    (uuid 07702795-9793-4bb6-a9b9-06d732c42b8a)
  )
  (hierarchical_label "PC0" (shape output) (at 253.365 29.845 180)
    (effects (font (size 1.27 1.27)) (justify right))
    (uuid 09339901-4d41-43ad-ba2a-c20411f3149e)
  )
  (hierarchical_label "PB12" (shape input) (at 194.564 101.346 180)
    (effects (font (size 1.27 1.27)) (justify right))
    (uuid 50a96f13-7451-49aa-a083-3542e6f8b5c7)
  )
  (hierarchical_label "VBattery-LIon" (shape input) (at 262.89 16.51 180)
    (effects (font (size 1.27 1.27)) (justify right))
    (uuid 780760a6-f94a-49d9-9665-288cd1a04ac4)
  )
  (hierarchical_label "PB11" (shape bidirectional) (at 194.564 103.886 180)
    (effects (font (size 1.27 1.27)) (justify right))
    (uuid 9e4d6d8e-60f5-47f6-beb1-ddf1bfa0d686)
  )
  (hierarchical_label "PA1" (shape input) (at 187.96 46.355 180)
    (effects (font (size 1.27 1.27)) (justify right))
    (uuid f650e99b-fded-4812-bd13-33a86c2d9c29)
  )
  (hierarchical_label "PB10" (shape bidirectional) (at 236.982 101.346 0)
    (effects (font (size 1.27 1.27)) (justify left))
    (uuid fd0e1607-e37d-4cb0-9d89-c3c7af8829eb)
  )

  (symbol (lib_id "power:GND") (at 246.38 98.806 0) (mirror y) (unit 1)
    (in_bom yes) (on_board yes)
    (uuid 14507bca-4484-41d9-8d39-6f25bec1afb8)
    (property "Reference" "#PWR051" (id 0) (at 246.38 105.156 0)
      (effects (font (size 1.27 1.27)) hide)
    )
    (property "Value" "GND" (id 1) (at 246.38 102.362 0))
    (property "Footprint" "" (id 2) (at 246.38 98.806 0)
      (effects (font (size 1.27 1.27)) hide)
    )
    (property "Datasheet" "" (id 3) (at 246.38 98.806 0)
      (effects (font (size 1.27 1.27)) hide)
    )
    (pin "1" (uuid 185f41c2-7510-4470-948e-4d681cbfb31d))
  )

  (symbol (lib_id "Device:R_Small") (at 262.89 37.465 0) (unit 1)
    (in_bom yes) (on_board yes)
    (uuid 31af7245-9902-4c67-9c46-45d414056b6f)
    (property "Reference" "R18" (id 0) (at 265.43 36.1949 0)
      (effects (font (size 1.27 1.27)) (justify left))
    )
    (property "Value" "100k" (id 1) (at 265.43 37.465 0)
      (effects (font (size 1.27 1.27)) (justify left))
    )
    (property "Footprint" "Resistor_SMD:R_1206_3216Metric" (id 2) (at 262.89 37.465 0)
      (effects (font (size 1.27 1.27)) hide)
    )
    (property "Datasheet" "https://datasheet.lcsc.com/lcsc/2110252030_UNI-ROYAL-Uniroyal-Elec-0603WAF1004T5E_C22935.pdf" (id 3) (at 262.89 37.465 0)
      (effects (font (size 1.27 1.27)) hide)
    )
    (property "Alt_LCSC" "C25741" (id 4) (at 262.89 37.465 0)
      (effects (font (size 1.27 1.27)) hide)
    )
    (property "LCSC" "C17900" (id 5) (at 262.89 37.465 0)
      (effects (font (size 1.27 1.27)) hide)
    )
    (property "Price" "0.004" (id 6) (at 262.89 37.465 0)
      (effects (font (size 1.27 1.27)) hide)
    )
    (property "MANUFACTURER" "0.004" (id 7) (at 262.89 37.465 0)
      (effects (font (size 1.27 1.27)) hide)
    )
    (pin "1" (uuid 3ae60b79-6b36-48fc-be8e-c0a4c0198126))
    (pin "2" (uuid 4defc198-fb73-4f9a-8a9d-cd22f4be094e))
  )

  (symbol (lib_id "LTR-553ALS-01:LTR-553ALS-01") (at 203.454 96.266 0) (unit 1)
    (in_bom yes) (on_board yes)
    (uuid 3423fef0-4b0b-42be-b35a-2d4dc99c5655)
    (property "Reference" "U8" (id 0) (at 206.756 90.678 0)
      (effects (font (size 1.27 1.27)) (justify right))
    )
    (property "Value" "LTR-553ALS-01" (id 1) (at 212.344 90.678 0)
      (effects (font (size 1.27 1.27)) (justify left))
    )
    (property "Footprint" "LTR-553ALS-01:LTR553ALS01" (id 2) (at 230.124 93.726 0)
      (effects (font (size 1.27 1.27)) (justify left) hide)
    )
    (property "Datasheet" "https://datasheet.lcsc.com/lcsc/2003101818_Lite-On-LTR-553ALS-01_C492375.pdf" (id 3) (at 222.504 88.646 0)
      (effects (font (size 1.27 1.27)) hide)
    )
    (property "Alt_LCSC" "C78465" (id 4) (at 203.454 96.266 0)
      (effects (font (size 1.27 1.27)) hide)
    )
    (property "LCSC" "C492375" (id 5) (at 203.454 96.266 0)
      (effects (font (size 1.27 1.27)) hide)
    )
    (property "Price" "0.3374" (id 6) (at 203.454 96.266 0)
      (effects (font (size 1.27 1.27)) hide)
    )
    (pin "1" (uuid c10f37ed-38cf-4e85-8a5c-d48782ba3668))
    (pin "2" (uuid 7db33adc-acba-4000-a6b8-df45409e9a61))
    (pin "3" (uuid 59b94cf1-d5ba-4e77-a024-1985c9a76e16))
    (pin "4" (uuid a732447b-cc46-4538-9ee9-f144f74fa333))
    (pin "5" (uuid 4f906367-6d15-4110-8244-c6f676c86405))
    (pin "6" (uuid 08491e6c-0436-48b0-a0fa-ec1031ef5d48))
    (pin "7" (uuid baef3df9-eb3a-4a0e-b462-3415df8e1f79))
    (pin "8" (uuid fa70f5b4-cc49-49f1-a9f8-0041cd4b8123))
  )

  (symbol (lib_id "power:+3V3") (at 249.174 95.631 0) (unit 1)
    (in_bom yes) (on_board yes) (fields_autoplaced)
    (uuid 3fd02374-7d7f-4117-8b30-31486dac145e)
    (property "Reference" "#PWR050" (id 0) (at 249.174 99.441 0)
      (effects (font (size 1.27 1.27)) hide)
    )
    (property "Value" "+3V3" (id 1) (at 249.174 90.551 0))
    (property "Footprint" "" (id 2) (at 249.174 95.631 0)
      (effects (font (size 1.27 1.27)) hide)
    )
    (property "Datasheet" "" (id 3) (at 249.174 95.631 0)
      (effects (font (size 1.27 1.27)) hide)
    )
    (pin "1" (uuid 34600403-f41d-47ed-8742-771add37111a))
  )

  (symbol (lib_id "power:GND") (at 203.835 53.975 0) (unit 1)
    (in_bom yes) (on_board yes) (fields_autoplaced)
    (uuid 58c9a520-7aea-473c-b038-4a0475c58e86)
    (property "Reference" "#PWR049" (id 0) (at 203.835 60.325 0)
      (effects (font (size 1.27 1.27)) hide)
    )
    (property "Value" "GND" (id 1) (at 203.835 59.055 0))
    (property "Footprint" "" (id 2) (at 203.835 53.975 0)
      (effects (font (size 1.27 1.27)) hide)
    )
    (property "Datasheet" "" (id 3) (at 203.835 53.975 0)
      (effects (font (size 1.27 1.27)) hide)
    )
    (pin "1" (uuid 44600e93-e587-468d-afdd-966711773a2f))
  )

  (symbol (lib_id "Device:Q_NPN_BCE") (at 201.295 46.355 0) (unit 1)
    (in_bom yes) (on_board yes) (fields_autoplaced)
    (uuid 59adc3ab-ba5c-4023-87ec-1a2a6b137a0f)
    (property "Reference" "Q5" (id 0) (at 206.375 45.0849 0)
      (effects (font (size 1.27 1.27)) (justify left))
    )
    (property "Value" "NPN" (id 1) (at 206.375 46.3549 0)
      (effects (font (size 1.27 1.27)) (justify left))
    )
    (property "Footprint" "Package_TO_SOT_SMD:SOT-23" (id 2) (at 206.375 43.815 0)
      (effects (font (size 1.27 1.27)) hide)
    )
    (property "Datasheet" "https://datasheet.lcsc.com/lcsc/1811011934_Changjiang-Electronics-Tech--CJ-MMBT3904_C20526.pdf" (id 3) (at 201.295 46.355 0)
      (effects (font (size 1.27 1.27)) hide)
    )
    (property "LCSC" "C20526" (id 4) (at 201.295 46.355 0)
      (effects (font (size 1.27 1.27)) hide)
    )
    (property "Price" "0.0143" (id 5) (at 201.295 46.355 0)
      (effects (font (size 1.27 1.27)) hide)
    )
    (property "Alt_LCSC" "C2146" (id 6) (at 201.295 46.355 0)
      (effects (font (size 1.27 1.27)) hide)
    )
    (pin "1" (uuid d6972d24-b145-497f-b00c-5757d64785b0))
    (pin "2" (uuid b0ddb503-a391-46dd-bf77-8b8b2cf30231))
    (pin "3" (uuid 356f3c5f-e819-458f-a7e5-65f2bacd5bac))
  )

  (symbol (lib_id "Device:R_Small") (at 203.835 28.575 0) (unit 1)
    (in_bom yes) (on_board yes)
    (uuid 72e274cf-d09b-40a2-b1e3-3b71338c2588)
    (property "Reference" "R16" (id 0) (at 206.375 27.3049 0)
      (effects (font (size 1.27 1.27)) (justify left))
    )
    (property "Value" "1k" (id 1) (at 206.375 28.575 0)
      (effects (font (size 1.27 1.27)) (justify left))
    )
    (property "Footprint" "Resistor_SMD:R_0805_2012Metric" (id 2) (at 203.835 28.575 0)
      (effects (font (size 1.27 1.27)) hide)
    )
    (property "Datasheet" "https://datasheet.lcsc.com/lcsc/2110251730_UNI-ROYAL-Uniroyal-Elec-0805W8F1001T5E_C17513.pdf" (id 3) (at 203.835 28.575 0)
      (effects (font (size 1.27 1.27)) hide)
    )
    (property "Alt_LCSC" "C25623" (id 4) (at 203.835 28.575 0)
      (effects (font (size 1.27 1.27)) hide)
    )
    (property "LCSC" "C17513" (id 5) (at 203.835 28.575 0)
      (effects (font (size 1.27 1.27)) hide)
    )
    (property "Price" "0.0023" (id 6) (at 203.835 28.575 0)
      (effects (font (size 1.27 1.27)) hide)
    )
    (pin "1" (uuid 9ef5d36d-1a6e-404f-b4da-3e2570720fb9))
    (pin "2" (uuid ac1fac38-0f5a-45eb-9a3f-ef60e8717ff7))
  )

  (symbol (lib_id "Device:R_Small") (at 193.675 46.355 90) (unit 1)
    (in_bom yes) (on_board yes)
    (uuid 73c1eee2-05c6-471c-a3e5-93be837b155c)
    (property "Reference" "R15" (id 0) (at 192.4049 43.815 0)
      (effects (font (size 1.27 1.27)) (justify left))
    )
    (property "Value" "1k" (id 1) (at 193.675 43.815 0)
      (effects (font (size 1.27 1.27)) (justify left))
    )
    (property "Footprint" "Resistor_SMD:R_0805_2012Metric" (id 2) (at 193.675 46.355 0)
      (effects (font (size 1.27 1.27)) hide)
    )
    (property "Datasheet" "https://datasheet.lcsc.com/lcsc/2110251730_UNI-ROYAL-Uniroyal-Elec-0805W8F1001T5E_C17513.pdf" (id 3) (at 193.675 46.355 0)
      (effects (font (size 1.27 1.27)) hide)
    )
    (property "Alt_LCSC" "C25623" (id 4) (at 193.675 46.355 0)
      (effects (font (size 1.27 1.27)) hide)
    )
    (property "LCSC" "C17513" (id 5) (at 193.675 46.355 0)
      (effects (font (size 1.27 1.27)) hide)
    )
    (property "Price" "0.0023" (id 6) (at 193.675 46.355 0)
      (effects (font (size 1.27 1.27)) hide)
    )
    (pin "1" (uuid 8ac833de-53d8-418b-a186-aa3f0694de1b))
    (pin "2" (uuid 064fc4ee-d447-4559-baca-3d06449176e8))
  )

  (symbol (lib_id "power:GND") (at 262.89 55.245 0) (unit 1)
    (in_bom yes) (on_board yes) (fields_autoplaced)
    (uuid 7f122db3-4e8f-42ea-ab12-0fd958eff2bd)
    (property "Reference" "#PWR052" (id 0) (at 262.89 61.595 0)
      (effects (font (size 1.27 1.27)) hide)
    )
    (property "Value" "GND" (id 1) (at 262.89 60.325 0))
    (property "Footprint" "" (id 2) (at 262.89 55.245 0)
      (effects (font (size 1.27 1.27)) hide)
    )
    (property "Datasheet" "" (id 3) (at 262.89 55.245 0)
      (effects (font (size 1.27 1.27)) hide)
    )
    (pin "1" (uuid 31193021-77c0-479b-9405-5629628af049))
  )

  (symbol (lib_id "power:GND") (at 233.934 111.252 0) (mirror y) (unit 1)
    (in_bom yes) (on_board yes) (fields_autoplaced)
    (uuid 877348bf-6cf6-43c4-9303-cd1658e2cafa)
    (property "Reference" "#PWR048" (id 0) (at 233.934 117.602 0)
      (effects (font (size 1.27 1.27)) hide)
    )
    (property "Value" "GND" (id 1) (at 233.934 115.697 0))
    (property "Footprint" "" (id 2) (at 233.934 111.252 0)
      (effects (font (size 1.27 1.27)) hide)
    )
    (property "Datasheet" "" (id 3) (at 233.934 111.252 0)
      (effects (font (size 1.27 1.27)) hide)
    )
    (pin "1" (uuid 0abbae11-70ea-4944-b291-1bcb2d5ecad7))
  )

  (symbol (lib_id "Transistor_FET:2N7002") (at 260.35 47.625 0) (unit 1)
    (in_bom yes) (on_board yes) (fields_autoplaced)
    (uuid a349d333-1a5f-4436-9e07-9dd43b13bf92)
    (property "Reference" "Q6" (id 0) (at 266.7 46.3549 0)
      (effects (font (size 1.27 1.27)) (justify left))
    )
    (property "Value" "AO3400A" (id 1) (at 266.7 48.8949 0)
      (effects (font (size 1.27 1.27)) (justify left))
    )
    (property "Footprint" "Package_TO_SOT_SMD:SOT-23" (id 2) (at 265.43 49.53 0)
      (effects (font (size 1.27 1.27) italic) (justify left) hide)
    )
    (property "Datasheet" "https://datasheet.lcsc.com/lcsc/1811081213_Alpha---Omega-Semicon-AO3400A_C20917.pdf" (id 3) (at 260.35 47.625 0)
      (effects (font (size 1.27 1.27)) (justify left) hide)
    )
    (property "Alt_LCSC" "C15127" (id 4) (at 260.35 47.625 0)
      (effects (font (size 1.27 1.27)) hide)
    )
    (property "LCSC" "C20917" (id 5) (at 260.35 47.625 0)
      (effects (font (size 1.27 1.27)) hide)
    )
    (property "Price" "0.1313" (id 6) (at 260.35 47.625 0)
      (effects (font (size 1.27 1.27)) hide)
    )
    (pin "1" (uuid fe25c852-9aa1-4448-b215-65e3e40376bb))
    (pin "2" (uuid 683ace21-d451-4a3b-9c6a-2ff48233eccb))
    (pin "3" (uuid 7398263b-8990-41fb-907f-d10d18bfa2f0))
  )

  (symbol (lib_id "Device:C_Small") (at 233.934 108.712 0) (mirror x) (unit 1)
    (in_bom yes) (on_board yes)
    (uuid b50a57ff-20dd-412f-afa2-2fe2bd76e71c)
    (property "Reference" "C20" (id 0) (at 240.284 108.7057 90))
    (property "Value" "100nF" (id 1) (at 237.109 108.712 90))
    (property "Footprint" "Capacitor_SMD:C_0603_1608Metric" (id 2) (at 233.934 108.712 0)
      (effects (font (size 1.27 1.27)) hide)
    )
    (property "Datasheet" "https://datasheet.lcsc.com/lcsc/1809301912_YAGEO-CC0603KRX7R9BB104_C14663.pdf" (id 3) (at 233.934 108.712 0)
      (effects (font (size 1.27 1.27)) hide)
    )
    (property "Alt_LCSC" "C30926" (id 4) (at 233.934 108.712 0)
      (effects (font (size 1.27 1.27)) hide)
    )
    (property "LCSC" "C14663" (id 5) (at 233.934 108.712 0)
      (effects (font (size 1.27 1.27)) hide)
    )
    (property "Price" "0.0026" (id 6) (at 233.934 108.712 0)
      (effects (font (size 1.27 1.27)) hide)
    )
    (pin "1" (uuid 22910cf2-891c-44a9-9f43-8ef3fc9e8206))
    (pin "2" (uuid d2ebea05-c9c5-4615-b2ab-567641f26035))
  )

  (symbol (lib_id "PKM13EPYH4002-B0:PKM13EPYH4002-B0") (at 219.71 28.448 0) (unit 1)
    (in_bom yes) (on_board yes) (fields_autoplaced)
    (uuid bbf4e6eb-a71b-4f11-8567-3dcd30e29c2b)
    (property "Reference" "BZ1" (id 0) (at 223.52 27.1779 0)
      (effects (font (size 1.27 1.27)) (justify left))
    )
    (property "Value" "Buzzer" (id 1) (at 223.52 28.4479 0)
      (effects (font (size 1.27 1.27)) (justify left))
    )
    (property "Footprint" "PKM13EPYH4002-B0:SPKR_PKM13EPYH4002-B0" (id 2) (at 219.075 25.908 90)
      (effects (font (size 1.27 1.27)) hide)
    )
    (property "Datasheet" "https://datasheet.lcsc.com/szlcsc/1912111437_Murata-Electronics-PKM13EPYH4002-B0_C128650.pdf" (id 3) (at 219.075 25.908 90)
      (effects (font (size 1.27 1.27)) hide)
    )
    (property "Alt_LCSC" "C96061" (id 4) (at 219.71 28.448 0)
      (effects (font (size 1.27 1.27)) hide)
    )
    (property "LCSC" "C128650" (id 5) (at 219.71 28.448 0)
      (effects (font (size 1.27 1.27)) hide)
    )
    (property "Price" "0.3955" (id 6) (at 219.71 28.448 0)
      (effects (font (size 1.27 1.27)) hide)
    )
    (pin "N" (uuid 7f1603d5-6875-49b3-aa4a-deecada7ef7e))
    (pin "P" (uuid 520d608b-7a94-4060-8225-f7af7dcd2655))
  )

  (symbol (lib_id "Device:R_Small") (at 262.89 24.13 0) (unit 1)
    (in_bom yes) (on_board yes)
    (uuid f4b777c9-c30a-4e78-abfd-d3896532f997)
    (property "Reference" "R17" (id 0) (at 265.43 22.8599 0)
      (effects (font (size 1.27 1.27)) (justify left))
    )
    (property "Value" "100k" (id 1) (at 265.43 24.13 0)
      (effects (font (size 1.27 1.27)) (justify left))
    )
    (property "Footprint" "Resistor_SMD:R_1206_3216Metric" (id 2) (at 262.89 24.13 0)
      (effects (font (size 1.27 1.27)) hide)
    )
    (property "Datasheet" "https://datasheet.lcsc.com/lcsc/2110252030_UNI-ROYAL-Uniroyal-Elec-0603WAF1004T5E_C22935.pdf" (id 3) (at 262.89 24.13 0)
      (effects (font (size 1.27 1.27)) hide)
    )
    (property "Alt_LCSC" "C25741" (id 4) (at 262.89 24.13 0)
      (effects (font (size 1.27 1.27)) hide)
    )
    (property "LCSC" "C17900" (id 5) (at 262.89 24.13 0)
      (effects (font (size 1.27 1.27)) hide)
    )
    (property "Price" "0.004" (id 6) (at 262.89 24.13 0)
      (effects (font (size 1.27 1.27)) hide)
    )
    (property "MANUFACTURER" "0.004" (id 7) (at 262.89 24.13 0)
      (effects (font (size 1.27 1.27)) hide)
    )
    (pin "1" (uuid 39145082-825f-48b4-964e-958e59a83d09))
    (pin "2" (uuid 94ebab51-a200-451b-80c5-4a6910538d4b))
  )

  (symbol (lib_id "power:+3V3") (at 189.865 19.685 0) (unit 1)
    (in_bom yes) (on_board yes) (fields_autoplaced)
    (uuid fc796df7-838b-4292-a482-85848115cd74)
    (property "Reference" "#PWR047" (id 0) (at 189.865 23.495 0)
      (effects (font (size 1.27 1.27)) hide)
    )
    (property "Value" "+3V3" (id 1) (at 189.865 14.605 0))
    (property "Footprint" "" (id 2) (at 189.865 19.685 0)
      (effects (font (size 1.27 1.27)) hide)
    )
    (property "Datasheet" "" (id 3) (at 189.865 19.685 0)
      (effects (font (size 1.27 1.27)) hide)
    )
    (pin "1" (uuid a3df867f-e009-4422-a170-0c49a469e745))
  )
)
